…
``` r
dogs$type <- NULL
```

As you can see below there are hundreds of distinct values for both
color and breed

``` r
dogs %>%
  group_by(breed) %>%
  count()
```

    ## # A tibble: 745 x 2
    ## # Groups:   breed [745]
    ##    breed                     n
    ##    <chr>                 <int>
    ##  1 AFFENPINSCHER             5
    ##  2 AFFENPINSCHER/MIX         1
    ##  3 AIREDALE TERR             1
    ##  4 AIREDALE TERR/MIX         2
    ##  5 AKBASH                    7
    ##  6 AKBASH/GREAT PYRENEES     2
    ##  7 AKBASH/MIX                4
    ##  8 AKITA                    16
    ##  9 AKITA/ALASKAN HUSKY       1
    ## 10 AKITA/ANATOL SHEPHERD     1
    ## # ... with 735 more rows

``` r
dogs %>%
  group_by(color) %>%
  count()
```

    ## # A tibble: 189 x 2
    ## # Groups:   color [189]
    ##    color                n
    ##    <chr>            <int>
    ##  1 AGOUTI              11
    ##  2 APRICOT             16
    ##  3 BL BRINDLE          37
    ##  4 BL BRINDLE/BLACK     1
    ##  5 BL BRINDLE/GRAY      2
    ##  6 BL BRINDLE/TAN       1
    ##  7 BL BRINDLE/WHITE    47
    ##  8 BLACK              813
    ##  9 BLACK/BL BRINDLE     3
    ## 10 BLACK/BLACK         18
    ## # ... with 179 more rows
…
